Custom/Custom.sim/sim_1/behav/xsim/simulate.log
Time resolution is 1 ps

[45000] ▶ Testing key at Row=0, Col=0 (Expected=0)
[245000] ✅ Correct key 0 detected

[245000] ▶ Testing key at Row=0, Col=1 (Expected=1)
[445000] ✅ Correct key 1 detected

[445000] ▶ Testing key at Row=0, Col=2 (Expected=2)
[645000] ✅ Correct key 2 detected

[645000] ▶ Testing key at Row=0, Col=3 (Expected=3)
[845000] ✅ Correct key 3 detected

[845000] ▶ Testing key at Row=1, Col=0 (Expected=4)
[1045000] ✅ Correct key 4 detected

[1045000] ▶ Testing key at Row=1, Col=1 (Expected=5)
[1245000] ✅ Correct key 5 detected

[1245000] ▶ Testing key at Row=1, Col=2 (Expected=6)
[1445000] ✅ Correct key 6 detected

[1445000] ▶ Testing key at Row=1, Col=3 (Expected=7)
[1645000] ✅ Correct key 7 detected

[1645000] ▶ Testing key at Row=2, Col=0 (Expected=8)
[1845000] ✅ Correct key 8 detected

[1845000] ▶ Testing key at Row=2, Col=1 (Expected=9)
[2045000] ✅ Correct key 9 detected

[2045000] ▶ Testing key at Row=2, Col=2 (Expected=10)
[2245000] ✅ Correct key 10 detected

[2245000] ▶ Testing key at Row=2, Col=3 (Expected=11)
[2445000] ✅ Correct key 11 detected

[2445000] ▶ Testing key at Row=3, Col=0 (Expected=12)
[2645000] ✅ Correct key 12 detected

[2645000] ▶ Testing key at Row=3, Col=1 (Expected=13)
[2845000] ✅ Correct key 13 detected

[2845000] ▶ Testing key at Row=3, Col=2 (Expected=14)
[3045000] ✅ Correct key 14 detected

[3045000] ▶ Testing key at Row=3, Col=3 (Expected=15)
[3245000] ✅ Correct key 15 detected
[3445000] ✅ All keys tested.
$finish called at time : 3445 ns : File "D:/Workspace/ParaKey/Custom/Custom.srcs/sim_1/new/tb_top.v" Line 54
